-------------------------------------------------------------------------------
Test set: com.simpleSecurityApp.CryptowalletApplicationTests
-------------------------------------------------------------------------------
Tests run: 1, Failures: 0, Errors: 0, Skipped: 0, Time elapsed: 9.665 s - in com.simpleSecurityApp.CryptowalletApplicationTests
