com\simpleSecurityApp\security\model\RoleName.class
com\simpleSecurityApp\security\security\services\UserPrinciple.class
com\simpleSecurityApp\security\service\UserService.class
com\simpleSecurityApp\security\controller\AuthRestAPIs.class
com\simpleSecurityApp\security\message\request\SignUpForm.class
com\simpleSecurityApp\security\repository\RoleRepository.class
com\simpleSecurityApp\utils\StringFunctions.class
com\simpleSecurityApp\security\security\jwt\JwtAuthEntryPoint.class
com\simpleSecurityApp\security\message\request\LoginForm.class
com\simpleSecurityApp\utils\http.class
com\simpleSecurityApp\security\controller\UserRestController.class
com\simpleSecurityApp\security\repository\UserRepository.class
com\simpleSecurityApp\SimpleSecurityApp.class
com\simpleSecurityApp\security\CurrentUser.class
com\simpleSecurityApp\security\message\response\JwtResponse.class
com\simpleSecurityApp\security\security\services\UserDetailsServiceImpl.class
com\simpleSecurityApp\security\security\WebSecurityConfig.class
com\simpleSecurityApp\security\model\Role.class
com\simpleSecurityApp\security\security\jwt\JwtAuthTokenFilter.class
com\simpleSecurityApp\security\model\User.class
com\simpleSecurityApp\security\security\jwt\JwtProvider.class
