<svg width="120" height="120" viewBox="0 0 120 120" fill="none" xmlns="http://www.w3.org/2000/svg">
<path d="M29.8598 95.3322H21.7573C20.3391 95.3322 19.1895 94.1826 19.1895 92.7644V87.5312H32.4274V92.7644C32.4277 94.1826 31.278 95.3322 29.8598 95.3322Z" fill="#4E5660"/>
<path d="M90.1401 95.3322H98.2427C99.6609 95.3322 100.811 94.1826 100.811 92.7644V87.5312H87.5725V92.7644C87.5723 94.1826 88.7219 95.3322 90.1401 95.3322Z" fill="#4E5660"/>
<path d="M102.298 66.6863H17.7021V40.4072C17.7021 31.7149 24.7486 24.6685 33.4408 24.6685H86.5589C95.2511 24.6685 102.298 31.7149 102.298 40.4072V66.6863H102.298Z" fill="#8DAEE1"/>
<path d="M102.298 40.4075C102.298 38.4346 101.932 36.5479 101.268 34.8076C93.6583 37.1223 88.0516 44.2768 87.9736 52.6569H64.3406C62.7778 52.6569 61.3019 53.0359 60 53.7072C58.698 53.0359 57.2221 52.6569 55.6593 52.6569H32.0264C31.9483 44.2768 26.3418 37.1223 18.7314 34.8076C18.0684 36.5479 17.7021 38.4346 17.7021 40.4075V66.6869H102.298V40.4075Z" fill="#6A95D6"/>
<path d="M106.339 39.1821C98.9745 39.3051 93.1371 45.4671 93.1371 52.8328V64.905H26.8629V52.8328C26.8629 45.4673 21.0255 39.3051 13.661 39.1821C6.13805 39.0565 0 45.1174 0 52.6118C0 58.1311 3.33047 62.8708 8.09016 64.9366V77.5437C8.09016 83.0597 12.5618 87.5315 18.078 87.5315H101.922C107.438 87.5315 111.91 83.0599 111.91 77.5437V64.9366C116.67 62.8708 120 58.1311 120 52.6118C120 45.1174 113.862 39.0565 106.339 39.1821Z" fill="#8DAEE1"/>
<path d="M106.339 39.1821C98.9745 39.3051 93.1371 45.4671 93.1371 52.8328V64.905H26.8629V52.8328C26.8629 45.4673 21.0255 39.3051 13.661 39.1821C6.13805 39.0565 0 45.1174 0 52.6118C0 58.1311 3.33047 62.8708 8.09016 64.9366V77.5437C8.09016 83.0597 12.5618 87.5315 18.078 87.5315H101.922C107.438 87.5315 111.91 83.0599 111.91 77.5437V64.9366C116.67 62.8708 120 58.1311 120 52.6118C120 45.1174 113.862 39.0565 106.339 39.1821Z" fill="#8DAEE1"/>
<path d="M55.6594 75.5519H21.9173C19.5201 75.5519 17.5767 73.6085 17.5767 71.2113V65.1298C17.5767 61.0929 20.8493 57.8203 24.8862 57.8203H52.6908C56.7276 57.8203 60.0002 61.0929 60.0002 65.1298V71.2113C60 73.6085 58.0565 75.5519 55.6594 75.5519Z" fill="#7ACDF9"/>
<path d="M98.0827 75.5519H64.3406C61.9434 75.5519 60 73.6085 60 71.2113V65.1298C60 61.0929 63.2726 57.8203 67.3095 57.8203H95.1141C99.1509 57.8203 102.424 61.0929 102.424 65.1298V71.2113C102.423 73.6085 100.48 75.5519 98.0827 75.5519Z" fill="#A2DDFD"/>
</svg>
