<svg width="120" height="120" viewBox="0 0 120 120" fill="none" xmlns="http://www.w3.org/2000/svg">
<g clip-path="url(#clip0)">
<path d="M106.485 94.9255H13.0463C5.71198 94.9255 -0.234375 88.9801 -0.234375 81.6458V38.3588C-0.234375 31.0245 5.71198 25.0781 13.0463 25.0781H106.485C113.819 25.0781 119.766 31.0245 119.766 38.3588V81.6458C119.766 88.9801 113.819 94.9255 106.485 94.9255Z" fill="#CCF8FF"/>
<path d="M106.485 25.0781H13.0463C5.71106 25.0781 -0.234375 31.0245 -0.234375 38.3588V81.6458C-0.234375 88.9801 5.71198 94.9255 13.0463 94.9255H29.2117C26.0861 89.1055 25.1138 82.641 25.0974 76.9006C25.0717 67.868 32.2449 60.4715 41.2747 60.2417C81.9196 59.2053 119.766 55.8637 119.766 55.8637V38.3588C119.766 31.0245 113.819 25.0781 106.485 25.0781Z" fill="#9FF6FF"/>
<path d="M106.485 25.0781H13.0463C5.71198 25.0781 -0.234375 31.0245 -0.234375 38.3588V47.2257H119.766V38.3588C119.766 31.0245 113.819 25.0781 106.485 25.0781Z" fill="#FFBDCD"/>
<path d="M40.676 25.0781H13.0463C5.71198 25.0781 -0.234375 31.0245 -0.234375 38.3588V47.2257H27.3953V38.3588C27.3953 31.0245 33.3417 25.0781 40.676 25.0781Z" fill="#FFA4BA"/>
<path d="M52.9559 68.9844L50.3695 65.6015C50.4272 65.552 51.7556 64.2337 50.7037 62.8989C50.0848 62.1133 48.8983 62.0767 48.1485 62.7386C39.8932 70.0162 27.4438 70.0162 19.1885 62.7386C18.4387 62.0767 17.2906 62.1463 16.6324 62.8989C15.379 64.3344 16.9098 65.552 16.9674 65.6015L14.3811 68.9844C13.7741 69.779 13.9251 70.9161 14.7198 71.5231C15.0485 71.774 16.3842 72.3398 17.2586 71.1844L19.8669 67.7722C21.156 68.6008 22.5027 69.303 23.8916 69.877L21.7611 74.5352C21.3455 75.4443 21.7456 76.5191 22.6556 76.9348C22.8991 77.0465 24.4235 77.3303 25.0552 76.0403L27.3504 71.0214C28.8318 71.3977 30.3405 71.6394 31.8576 71.7465V78.0563C31.8576 79.0561 32.6687 79.8672 33.6685 79.8672C34.6692 79.8672 35.4794 79.0561 35.4794 78.0563V71.7465C36.9964 71.6394 38.5052 71.3977 39.9875 71.0214L42.2818 76.0403C43.0472 77.3981 44.4378 77.0465 44.6814 76.9348C45.5914 76.5191 45.9915 75.4443 45.5758 74.5352L43.4454 69.877C44.8343 69.303 46.181 68.6008 47.4701 67.7722L50.0784 71.1844C50.9518 72.2729 52.2885 71.774 52.6172 71.5231C53.4118 70.9161 53.5629 69.779 52.9559 68.9844Z" fill="#898890"/>
<path d="M105.15 68.9844L102.564 65.6015C102.62 65.552 103.95 64.2337 102.898 62.8989C102.279 62.1133 101.092 62.0767 100.342 62.7386C92.0873 70.0162 79.6371 70.0162 71.3827 62.7386C70.632 62.0767 69.4848 62.1463 68.8265 62.8989C67.5732 64.3344 69.1039 65.552 69.1616 65.6015L66.5753 68.9844C65.9673 69.779 66.1193 70.9161 66.914 71.5231C67.2418 71.774 68.5775 72.3398 69.4518 71.1844L72.0611 67.7722C73.3502 68.6008 74.6969 69.303 76.0848 69.877L73.9553 74.5352C73.5397 75.4443 73.9398 76.5191 74.8489 76.9348C75.0933 77.0465 76.6168 77.3303 77.2485 76.0403L79.5437 71.0214C81.0259 71.3977 82.5347 71.6394 84.0518 71.7465V78.0563C84.0518 79.0561 84.862 79.8672 85.8627 79.8672C86.8624 79.8672 87.6736 79.0561 87.6736 78.0563V71.7465C89.1906 71.6394 90.6985 71.3977 92.1807 71.0214L94.476 76.0403C95.2404 77.3981 96.6311 77.0465 96.8756 76.9348C97.7847 76.5191 98.1848 75.4443 97.7691 74.5352L95.6396 69.877C97.0275 69.303 98.3743 68.6008 99.6633 67.7722L102.272 71.1844C103.145 72.2729 104.482 71.774 104.81 71.5231C105.605 70.9161 105.757 69.779 105.15 68.9844Z" fill="#898890"/>
</g>
<defs>
<clipPath id="clip0">
<rect width="120" height="120" fill="white"/>
</clipPath>
</defs>
</svg>
