<svg width="120" height="120" viewBox="0 0 120 120" fill="none" xmlns="http://www.w3.org/2000/svg">
<path d="M42.1875 21.5625H49.9219V38.2031H42.1875V21.5625Z" fill="#546370"/>
<path d="M70.5469 21.5625H78.2812V38.2031H70.5469V21.5625Z" fill="#546370"/>
<path d="M98.5301 93.75H21.7043C15.542 93.75 10.5469 88.7454 10.5469 82.5715V46.5692C10.5469 40.3952 15.542 35.3906 21.7043 35.3906H98.5309C104.692 35.3906 109.688 40.3952 109.688 46.5692V82.5715C109.688 88.7454 104.692 93.75 98.5301 93.75Z" fill="#FFA93F"/>
<path d="M21.7134 35.3906C15.5461 35.3906 10.5469 40.3952 10.5469 46.5692V82.5715C10.5469 88.7454 15.5461 93.75 21.7134 93.75H51.5989C48.8926 90.5838 47.6527 86.0688 47.1417 81.7477C46.3628 75.1631 50.2295 68.9406 56.4263 66.5997C59.9547 65.2667 62.3438 63.8618 62.3438 63.8618V35.3906H21.7134Z" fill="#FF9000"/>
<path d="M10.5469 76.1719V82.6752C10.5469 88.7918 15.542 93.75 21.7043 93.75H98.5309C104.692 93.75 109.688 88.7918 109.688 82.6752V76.1719H10.5469Z" fill="#6B7D8E"/>
<path d="M98.5301 35.3906H21.7043C15.542 35.3906 10.5469 40.3803 10.5469 46.5357V52.5H109.688V46.5357C109.688 40.3803 104.692 35.3906 98.5301 35.3906Z" fill="#FFBE73"/>
<path d="M26.25 52.5H40.5469V76.1719H26.25V52.5Z" fill="#DFCA00"/>
<path d="M79.6875 52.5H94.2188V76.1719H79.6875V52.5Z" fill="#EEDB00"/>
<path d="M77.6046 25.3125H42.6298C39.6668 25.3125 37.2656 22.8995 37.2656 19.9219C37.2656 16.945 39.6668 14.5312 42.6298 14.5312H77.6046C80.5668 14.5312 82.9688 16.945 82.9688 19.9219C82.9688 22.8995 80.5676 25.3125 77.6046 25.3125Z" fill="#8697A6"/>
<path d="M50.6503 19.9219C50.6503 16.945 53.0519 14.5312 56.0156 14.5312H42.631C39.6673 14.5312 37.2656 16.945 37.2656 19.9219C37.2656 22.8995 39.6673 25.3125 42.631 25.3125H56.0156C53.0519 25.3125 50.6503 22.8995 50.6503 19.9219Z" fill="#6B7D8E"/>
<path d="M26.25 35.3906H40.5469V52.5H26.25V35.3906Z" fill="#F9EE80"/>
<path d="M79.6875 35.3906H94.2188V52.5H79.6875V35.3906Z" fill="#F9EE80"/>
<path d="M10.5469 76.1719V82.6752C10.5469 88.7918 15.5702 93.75 21.7672 93.75H51.7969C49.0776 90.6132 47.8316 86.14 47.3182 81.8591C47.0831 79.8988 47.2687 77.9723 47.8134 76.1719H10.5469Z" fill="#546370"/>
<path d="M57.1017 72.0683C57.1017 72.0683 47.4579 69.6781 43.9625 62.3265C43.1575 60.6332 44.4546 58.6867 46.3465 58.7566L62.4451 59.3474L57.1017 72.0683Z" fill="#8697A6"/>
<path d="M51.1813 69.7618C54.2686 71.4485 57 72.0956 57 72.0956L62.4795 59.4754L51.8916 59.1591C52.3744 61.2025 52.6575 64.7234 51.1813 69.7618Z" fill="#6B7D8E"/>
<path d="M58.511 39.8594C52.2664 39.8794 47.4294 43.598 44.419 46.8019C42.7523 48.5754 43.9288 51.4817 46.3608 51.5763L52.3329 51.8086C54.9378 51.9098 56.9992 54.0466 57.0052 56.6526L57.0399 72.1408C57.0399 72.1408 63.9721 74.5289 70.0038 70.6676C71.4627 69.7338 73.3649 69.8721 74.6866 70.9906C85.1539 79.8474 100.551 90.0144 103.39 91.6525C107.963 94.2909 113.812 92.7237 116.454 88.1522C119.095 83.5805 117.529 77.7354 112.955 75.0971C110.092 73.4449 93.3272 65.0791 80.3717 60.4726C78.7278 59.888 77.6421 58.2951 77.7412 56.5537C78.3113 46.5255 68.3284 39.828 58.511 39.8594Z" fill="#A5B1BD"/>
<path d="M110.63 81.8191C111.149 83.7588 109.998 85.7525 108.058 86.2723C106.118 86.7921 104.125 85.641 103.605 83.7013C103.085 81.7612 104.236 79.7674 106.176 79.2475C108.116 78.7278 110.11 79.8789 110.63 81.8191Z" fill="#6B7D8E"/>
<path d="M99.4242 78.3187C98.5304 79.8668 96.5511 80.3971 95.0035 79.5032L85.7106 74.1379C84.1625 73.2441 83.6321 71.2648 84.5261 69.7172C85.4199 68.1691 87.3992 67.6388 88.9473 68.5326L98.2395 73.8975C99.7876 74.7913 100.318 76.7706 99.4242 78.3187Z" fill="#8697A6"/>
<path d="M84.5195 69.7134C83.6306 71.2522 84.158 73.2203 85.6973 74.109L90.2511 76.7386C88.7123 75.8498 88.185 73.8817 89.0732 72.3425C89.9619 70.8032 91.93 70.2759 93.4693 71.1646L88.9156 68.5355C87.3763 67.6468 85.4082 68.1741 84.5195 69.7134Z" fill="#6B7D8E"/>
<path d="M69.1953 61.3808C69.213 62.567 68.2786 63.5359 67.1083 63.5448L63.9698 63.5679C62.7995 63.5767 61.8366 62.6221 61.8188 61.436C61.8015 60.2497 62.7356 59.2814 63.906 59.2725L67.0443 59.249C68.2146 59.2401 69.1775 60.1947 69.1953 61.3808Z" fill="#546370"/>
<path d="M69.2491 54.0883C69.267 55.275 68.3324 56.2434 67.1621 56.2523L64.0236 56.2754C62.8533 56.2842 61.8904 55.3296 61.8727 54.1435C61.8554 52.9572 62.7895 51.9889 63.9598 51.98L67.0982 51.9565C68.2685 51.9476 69.2313 52.9022 69.2491 54.0883Z" fill="#546370"/>
<path d="M69.2337 57.7774C69.2653 59.017 68.3393 60.0174 67.1654 60.0128L64.0177 59.9993C62.8438 59.9947 61.866 58.9863 61.8345 57.7471C61.8026 56.5081 62.7286 55.5077 63.9025 55.5124L67.0501 55.5253C68.224 55.53 69.2018 56.5383 69.2337 57.7774Z" fill="#6B7D8E"/>
</svg>
